<?xml version="1.0" encoding="utf-8"?>
<!-- Generator: Adobe Illustrator 26.2.1, SVG Export Plug-In . SVG Version: 6.00 Build 0)  -->
<svg version="1.1" id="a" xmlns="http://www.w3.org/2000/svg" xmlns:xlink="http://www.w3.org/1999/xlink" x="0px" y="0px"
	 viewBox="0 0 1500 430.3" style="enable-background:new 0 0 1500 430.3;" xml:space="preserve">
<style type="text/css">
	.st0{fill:#FFFFFF;}
	.st1{fill:#00D37E;}
</style>
<g id="b">
	<path class="st0" d="M455.9,411h13.4c0.1,4.7,4.7,8.7,10.9,8.7s9.9-3.3,9.9-8c0-3.7-2.7-6.2-8.4-8l-8.1-2.3
		c-14.5-3.8-17.1-12.6-17.1-18.6c0-11.8,10.2-20,22.9-20s22.1,7.6,22.1,20.2h-13.4c0-4.7-3.3-8.4-9-8.4c-5.2,0-9.1,3.5-9.1,7.9
		c0,1.6,0.5,5,7.4,7l7.4,2.1c10,3,18.8,8.1,18.8,19.3c0,13.2-11.3,20.4-23.8,20.4C465.7,431.4,456,422.7,455.9,411L455.9,411z"/>
	<path class="st0" d="M604.6,430.3h-13.7l-4.8-41.1l-16.2,33.6h-10.5l-16.4-33.6l-4.8,41.1h-13.7l8.2-66.3h11.3l20.5,43.5l20.3-43.5
		h11.5L604.6,430.3L604.6,430.3z"/>
	<path class="st0" d="M670.9,430.3l-5.4-15.9h-24.8l-5.3,15.9h-14.2l24.7-66.3h14.4l24.6,66.3H670.9z M644.6,402.7h16.9l-8.5-25.1
		L644.6,402.7L644.6,402.7z"/>
	<path class="st0" d="M738.7,430.3l-15.8-23.8h-4.5v23.8H705V364h26.5c15.2,0,21.7,10.8,21.7,21.7c0,9.4-6.6,18.7-16,20.3l17.1,24.3
		L738.7,430.3L738.7,430.3z M718.4,375.8v19.9h10.7c7.5,0,10.7-4.5,10.7-9.8s-3.4-10.1-9.6-10.1H718.4L718.4,375.8z"/>
	<path class="st0" d="M821.2,364v11.8h-18.3v54.5h-13.4v-54.5h-18.3V364H821.2L821.2,364z"/>
	<path class="st0" d="M857,418.4h29.1v11.8h-42.4V364h41.6v11.8H857v15.8h24.7v12H857L857,418.4L857,418.4z"/>
	<path class="st0" d="M945.1,430.3l-15.8-23.8h-4.5v23.8h-13.4V364h26.4c15.2,0,21.7,10.8,21.7,21.7c0,9.4-6.6,18.7-16,20.3
		l17.1,24.3L945.1,430.3L945.1,430.3z M924.8,375.8v19.9h10.7c7.5,0,10.7-4.5,10.7-9.8s-3.4-10.1-9.6-10.1H924.8L924.8,375.8z"/>
	<path class="st0" d="M1061.1,364v11.8h-18.3v54.5h-13.4v-54.5h-18.3V364H1061.1z"/>
	<path class="st0" d="M1117.3,430.3l-15.8-23.8h-4.5v23.8h-13.4V364h26.4c15.2,0,21.7,10.8,21.7,21.7c0,9.4-6.6,18.7-16,20.3
		l17.1,24.3L1117.3,430.3L1117.3,430.3z M1097,375.8v19.9h10.7c7.5,0,10.7-4.5,10.7-9.8s-3.4-10.1-9.6-10.1H1097L1097,375.8z"/>
	<path class="st0" d="M1198.4,430.3l-5.4-15.9h-24.8l-5.3,15.9h-14.2l24.7-66.3h14.4l24.6,66.3H1198.4z M1172.1,402.7h16.9
		l-8.5-25.1L1172.1,402.7z"/>
	<path class="st0" d="M1258.5,364c19.1,0,30.1,14.4,30.1,33.3s-11.1,33-30.1,33h-26V364H1258.5z M1258.5,418.4
		c11.1,0,16.7-9.8,16.7-21.2s-5.7-21.5-16.7-21.5h-12.6v42.6H1258.5z"/>
	<path class="st0" d="M1313.5,430.3V364h13.4v66.3H1313.5z"/>
	<path class="st0" d="M1391.7,364h13.4v66.3h-12l-24.1-41.6v41.6h-13.4V364h12.4l23.7,41.1V364z"/>
	<path class="st0" d="M1429.7,397.2c0-18.8,14.8-34.3,33.9-34.3c10,0,18.8,4.1,24.5,10.6l-9.7,8.4c-3.8-4-9-6.5-14.8-6.5
		c-11.5,0-20.5,10.1-20.5,21.9s8.8,22.2,20.9,22.2c8.7,0,17.2-5.2,17.2-12.9h-18.8v-10.9h33.4c0,24.5-13.6,35.8-31.6,35.8
		C1444.2,431.4,1429.6,415.9,1429.7,397.2L1429.7,397.2z"/>
</g>
<g id="c">
	<path class="st0" d="M545.2,93.9c-55.8,0-101.2,45.9-101.2,102.3s45.4,102.6,101.2,102.6s100.9-46,100.9-102.6
		S600.9,93.9,545.2,93.9z M544.9,254.1c-30.9,0-53.3-24.4-53.3-58s22.4-57.7,53.3-57.7s53.6,24.8,53.6,57.7S575.5,254.1,544.9,254.1
		L544.9,254.1z"/>
	<polygon class="st0" points="1014.8,97.2 1014.8,194.6 943,97.2 897.8,97.2 897.8,295.4 948.3,295.4 948.3,196.5 1021.8,295.4 
		1065.3,295.4 1065.3,97.2 	"/>
	<path class="st0" d="M1191,97.2h-83v198.2h83c54.2,0,90.6-39.7,90.6-98.7S1245.2,97.2,1191,97.2z M1158.6,142.2h32.4
		c27.4,0,39.8,28.3,39.8,54.5s-12.5,53.7-39.8,53.7h-32.4V142.2L1158.6,142.2z"/>
	<path class="st0" d="M813.8,295.4H868L787.1,97.2L762,97.3l-25.1-0.1L656,295.4h54.2l16.2-44.9h71.2L813.8,295.4L813.8,295.4z
		 M742.4,206.3l19.6-54.1l19.6,54.1H742.4L742.4,206.3z"/>
	<path class="st0" d="M1445.8,295.4h54.2l-80.8-198.2l-25.1,0.1l-25.1-0.1l-80.8,198.2h54.2l16.2-44.9h71.2L1445.8,295.4
		L1445.8,295.4z M1374.4,206.3l19.6-54.1l19.6,54.1H1374.4L1374.4,206.3z"/>
</g>
<polygon class="st0" points="85.6,264.6 29,264.6 0,154.3 56.6,154.3 "/>
<polygon class="st1" points="326.5,169.9 269.9,169.9 315.4,0 372,0 "/>
<polygon class="st1" points="212.8,84.9 164.9,263.6 137,368 192.9,368 193.6,368 269.4,84.9 "/>
<polygon class="st0" points="146.7,196.1 90.1,196.1 135.7,368 136.4,368 192.9,368 "/>
</svg>
