<?xml version="1.0" encoding="utf-8"?>
<!-- Generator: Adobe Illustrator 23.0.3, SVG Export Plug-In . SVG Version: 6.00 Build 0)  -->
<svg version="1.1" id="Layer_1" xmlns="http://www.w3.org/2000/svg" xmlns:xlink="http://www.w3.org/1999/xlink" x="0px" y="0px"
	 viewBox="0 0 360 360" style="enable-background:new 0 0 360 360;" xml:space="preserve">
<style type="text/css">
	.st0{fill:#9AC965;}
	.st1{fill:#5CE1F0;}
	.st2{fill:#55CBCC;}
	.st3{fill:#8CE6EB;}
	.st4{fill:#55CBCD;}
	.st5{fill:#56CBCD;}
	.st6{fill:#5CE2F0;}
	.st7{fill:#00989A;}
	.st8{fill:#649766;}
</style>
<g>
	<path class="st0" d="M308.01,178.37c0,0.57,0,1.14-0.01,1.71l-24.93-24.21L180,278.85l24.2,23.79c-7.28,1.31-14.78,1.99-22.44,1.99
		c-69.73,0-126.26-56.53-126.26-126.26S112.03,52.12,181.76,52.12S308.01,108.64,308.01,178.37z"/>
	<polygon class="st1" points="76.93,155.87 180,278.85 129.73,155.87 	"/>
	<polygon class="st2" points="150.03,113.63 118.55,113.63 76.93,155.87 129.73,155.87 	"/>
	<polygon class="st3" points="150.03,113.63 129.73,155.87 180,155.87 180,113.63 	"/>
	<polygon class="st4" points="180,278.85 180,155.87 129.73,155.87 	"/>
	<polygon class="st1" points="283.07,155.87 180,278.85 230.27,155.87 	"/>
	<polygon class="st5" points="209.97,113.63 241.45,113.63 283.07,155.87 230.27,155.87 	"/>
	<polygon class="st6" points="209.97,113.63 230.27,155.87 180,155.87 180,113.63 	"/>
	<polygon class="st7" points="180,278.85 180,155.87 230.27,155.87 	"/>
	<path class="st8" d="M308,180.08c-0.82,61.31-45.32,112.07-103.8,122.56L180,278.85l103.07-122.98L308,180.08z"/>
</g>
</svg>
