{
  "accounts": {
    "v20": [
      {
        "NAV": "string",
        "accountID": "string",
        "accountName": "string",
        "accountNumber": 0,
        "accountPositionValueLimit": "string",
        "accountRiskGroupID": 0,
        "accountType": "string",
        "alias": "string",
        "balance": "string",
        "cellID": 0,
        "checkMargin": true,
        "commission": "string",
        "commissionGroupID": 0,
        "configurationLocked": true,
        "createdByUserID": 0,
        "createdTime": "string",
        "currency": "string",
        "currencyConversionGroupID": 0,
        "depositLocked": true,
        "dividendAdjustment": "string",
        "divisionID": 0,
        "divisionTradingGroupID": 0,
        "error_msg": "string",
        "financing": "string",
        "guaranteedExecutionAmountForgiven": "string",
        "guaranteedExecutionFees": "string",
        "guaranteedStopLossOrderMode": "string",
        "health": "string",
        "hedgingEnabled": true,
        "id": "string",
        "lastAppliedPriceTimestamp": "string",
        "lastTransactionID": "string",
        "locked": true,
        "marginAvailable": "string",
        "marginCallMarginUsed": "string",
        "marginCallPercent": "string",
        "marginCloseoutMarginUsed": "string",
        "marginCloseoutNAV": "string",
        "marginCloseoutPercent": "string",
        "marginCloseoutPositionValue": "string",
        "marginCloseoutUnrealizedPL": "string",
        "marginRate": "string",
        "marginUsed": "string",
        "maxOpenTradeCount": 0,
        "maxOpenTradeCountOverride": 0,
        "maxPendingOrderCount": 0,
        "maxPendingOrderCountOverride": 0,
        "mt4AccountID": "string",
        "mt4ServerID": 0,
        "negativeBalanceProtected": true,
        "negativeBalanceTopUp": "string",
        "newPositionsLocked": true,
        "openPositionCount": 0,
        "openTradeCount": 0,
        "orderCancelLocked": true,
        "orderCreationLocked": true,
        "orderFillLocked": true,
        "pendingOrderCount": 0,
        "pl": "string",
        "positionAggregationModeOverride": 0,
        "positionValue": "string",
        "pricingGroupIDs": [
          0
        ],
        "properties": [
          {
            "accountPropertyID": 0,
            "accountPropertyName": "string"
          }
        ],
        "resettablePL": "string",
        "resettablePLTime": "string",
        "siteID": 0,
        "state": "string",
        "tradingGroupID": 0,
        "unrealizedPL": "string",
        "userID": "string",
        "withdrawalLimit": "string",
        "withdrawalLocked": true
      }
    ]
  },
  "defaultAccountConfig": {
    "v20": {
      "commissionGroupID": 0,
      "configurationLocked": true,
      "depositLocked": true,
      "divisionTradingGroupID": {
        "divisionID": 1,
        "tradingGroupID": 0
      },
      "hedgingEnabled": true,
      "locked": true,
      "newPositionsLocked": true,
      "orderCancelLocked": true,
      "orderCreationLocked": true,
      "orderFillLocked": true,
      "pricingGroupOverrideIDs": [
        0
      ],
      "withdrawalLocked": true
    }
  }
}