<?xml version="1.0" encoding="UTF-8"?>
<svg width="19px" height="19px" viewBox="0 0 19 19" version="1.1" xmlns="http://www.w3.org/2000/svg" xmlns:xlink="http://www.w3.org/1999/xlink">
    <title>Artboard Copy 3</title>
    <g id="Artboard-Copy-3" stroke="none" stroke-width="1" fill="none" fill-rule="evenodd" stroke-linecap="round" stroke-linejoin="round">
        <g id="Group" transform="translate(2.000000, 2.000000)" stroke="#FFFFFF" stroke-width="2.7">
            <polyline id="Path" points="12.204 9.06880152 12.24 14.4 0 14.4 0 2.16 5.40898969 2.16"></polyline>
            <line x1="6.3" y1="8.352" x2="13.212" y2="1.44" id="Path-2"></line>
            <polyline id="Path-3" points="9.52602889 -2.94676283e-13 14.508 8.18545232e-13 14.508 4.896"></polyline>
        </g>
    </g>
</svg>